Computing Segregation Measures
…
# adding a variable for the number of tracts in each city
renter_seg %<>%
  dplyr::group_by(place_name, year) %>%
  dplyr::mutate(n_tracts = n())

# checking to see if the large differences between the cities and tracts are due to cities with only a small number of tracts within in
renter_seg %>%
  dplyr::mutate(diff_P_city = P_diss - prenter_city) %>%
  subset(diff_P_city>.30) %>%
  dplyr::select("year","place_name","prenter_city","P_diss","diff_P_city","n_tracts")

## # A tibble: 38 x 6
## # Groups:   place_name, year [38]
##    year  place_name                     prenter_city P_diss diff_P_city n_tracts
##    <chr> <chr>                                 <dbl>  <dbl>       <dbl>    <int>
##  1 2010  San Miguel CDP (Contra Costa        0.0788  0.475       0.396        1
##  2 2010  Comptche CDP, California             0       0.371       0.371        1
##  3 2010  Lincoln Village CDP, Californ       0.298   0.699       0.401        1
##  4 2010  Loma Mar CDP, California             0       0.326       0.326        1
##  5 2011  San Miguel CDP (Contra Costa        0.0762  0.513       0.437        1
##  6 2011  Comptche CDP, California             0       0.356       0.356        1
##  7 2011  Soledad city, California             0.418   1           0.582        1
##  8 2011  Lincoln Village CDP, Californ       0.324   0.693       0.368        1
##  9 2012  Pacheco CDP, California              0.217   0.519       0.302        1
## 10 2012  San Miguel CDP (Contra Costa        0.0969  0.513       0.416        1
## #  with 28 more rows

renter_seg %>%
  dplyr::mutate(diff_P_city = P_diss - prenter_city) %>%
  subset(diff_P_city<(-.30)) %>%
  dplyr::select("year","place_name","prenter_city","P_diss","diff_P_city","n_tracts")

## # A tibble: 59 x 6
## # Groups:   place_name, year [23]
##    year  place_name                  prenter_city P_diss diff_P_city n_tracts
##    <chr> <chr>                              <dbl>  <dbl>       <dbl>    <int>
##  1 2010  Industry city, California          0.662  0.319      -0.343        5
##  2 2010  Industry city, California          0.662  0.319      -0.343        5
##  3 2010  Industry city, California          0.662  0.319      -0.343        5
##  4 2010  Industry city, California          0.662  0.319      -0.343        5
##  5 2010  Industry city, California          0.662  0.319      -0.343        5
##  6 2010  Oakville CDP, California           1      0.117      -0.883        1
##  7 2010  Camp Nelson CDP, California        0.731  0.258      -0.473        1
##  8 2011  Industry city, California          0.862  0.288      -0.574        5
##  9 2011  Industry city, California          0.862  0.288      -0.574        5
## 10 2011  Industry city, California          0.862  0.288      -0.574        5
## #  with 49 more rows
…
