Merging 1992-2017 Police Data with 2018 Data
…
## Warning: Transformation introduced infinite values in continuous y-axis

## Warning: Transformation introduced infinite values in continuous y-axis

## Warning: Removed 274 rows containing non-finite values (stat_smooth).

## Warning: Removed 263 rows containing missing values (geom_point).

# looking at the mean and median
policing_complete %>%
  dplyr::group_by(year) %>%
  dplyr::summarise(mean_police = mean(police_total, na.rm = T),
            median_police = median(police_total, na.rm = T))

## # A tibble: 27 x 3
##     year mean_police median_police
##    <dbl>       <dbl>         <dbl>
##  1  1992    8747252.      2672355 
##  2  1993    8949851.      2808382 
##  3  1994    9115474.      2859206.
##  4  1995    9611983.      3070614 
##  5  1996   10132028.      3149517 
##  6  1997   10540394.      3227024.
##  7  1998   11082092.      3424042 
##  8  1999   11582200.      3568916 
##  9  2000   11966994.      3803579 
## 10  2001   12392518.      4025987 
## #  with 17 more rows

1.3 Adjusting my main varables of interest for inflation

I need to adjust both police spending (dependent variable) and federal transfers (independent variable) for inflation.

The BLS has an API but I can only call Consumer Price Index (CPI) values for 10 years at time. This is not ideal because I have data across 26 years.

But I found a California-specific CPI (even better because my analysis is CA-focused) from the States EDD at the following website: https://www.labormarketinfo.edd.ca.gov/cgi/databrowsing/localAreaProfileQSMoreResult.asp?viewAll=&viewAllUS=&currentPage=&currentPageUS=&sortUp=&sortDown=Year&criteria=consumer+price+index&categoryType=economicindicators&geogArea=0601000000&timeseries=consumer+price+indexTimeSeries&more=&menuChoice=localAreaPro&printerFriendly=&BackHistory=-1&goTOPageText=&USgoTOPage=

I downloaded the data, which comes with California and US CPI values and created a second sheet in the file with just the California data.

## # A tibble: 482 x 1
##    base_cpi
##       <dbl>
##  1     272.
##  2     272.
##  3     272.
##  4     272.
##  5     272.
##  6     272.
##  7     272.
##  8     272.
##  9     272.
## 10     272.
## #  with 472 more rows
…
## Warning: Removed 274 rows containing non-finite values (stat_smooth).

## Warning: Removed 263 rows containing missing values (geom_point).

We already see that adjusting for inflation (via the California CPI) leads to a much less pronounced average increase in police spending from 1992 to 2018. Lets check summary statistics.

# checking change over time for summary variables
policing_complete %>%
  dplyr::group_by(year) %>%
  dplyr::summarise(mean_police = mean(police_total, na.rm = T),
            median_police = median(police_total, na.rm = T),
            mean_police_adj = mean(police_infl_adj, na.rm = T),
            median_police_adj = median(police_infl_adj, na.rm = T))

## # A tibble: 27 x 5
##     year mean_police median_police mean_police_adj median_police_adj
##    <dbl>       <dbl>         <dbl>           <dbl>             <dbl>
##  1  1992    8747252.      2672355        16371059.          5001489.
##  2  1993    8949851.      2808382        16324192.          5122384.
##  3  1994    9115474.      2859206.       16395820.          5142797.
##  4  1995    9611983.      3070614        17008217.          5433392.
##  5  1996   10132028.      3149517        17574650.          5463039.
##  6  1997   10540394.      3227024.       17895685.          5478903.
##  7  1998   11082092.      3424042        18447587.          5699764.
##  8  1999   11582200.      3568916        18730858.          5771689.
##  9  2000   11966994.      3803579        18655641.          5929492.
## 10  2001   12392518.      4025987        18585368.          6037873.
## #  with 17 more rows
…
